 _______________________ 
|                       |
|  Player1 : #K         |
|                       |
|  Resources : #C       |
|                       |
|  Lumbers : #C         |
|  Bricks  : #C         |
|  Wools   : #C         |
|  Grains  : #C         |
|  Ores    : #C         |
|                       |
|  Hidden DevCards: #C  |
|                       |
|  Knits          : #C  |
|  Road building  : #C  |
|  Year of plenty : #C  |
|  Monopoly       : #C  |
|  Victory points : #C  |
|_______________________|