 ________________________________________________ 
| #n                                             |
| #n                                             |
| #n                                             |
| #n                                             |
| #n                                             |
| #n                                             |
| #n                                             |
| #n                                             |
| #n                                             |
| #n                                             |
| #n                                             |
| #n                                             |
| #n                                             |
| #n                                             |
| #n                                             |
| #n                                             |
| #n                                             |
| #n                                             |
| #n                                             |
| #n                                             |
| #n                                             |
| #n                                             |
| #n                                             |
| #n                                             |
| #n                                             |
| #n                                             |
| #n                                             |
| #n                                             |
| #n                                             |
| #n                                             |
| #n                                             |
  #n                                              