 _______________________________ 
|                               |
|  Player1    : #K              |
|  Resources  : #C              |
|  Dev Cards  : #C              |
|  Turned Dev : #Q              |
|_______________________________|